<svg width="607" height="793" viewBox="0 0 607 793" fill="none" xmlns="http://www.w3.org/2000/svg">
<rect x="570.939" y="1" width="12.601" height="34.6146" rx="3" transform="rotate(90 570.939 1)" fill="white" stroke="#CCCDC9" stroke-width="2"/>
<rect x="606" y="57.2671" width="27.2794" height="36.2453" rx="3" transform="rotate(90 606 57.2671)" fill="white" stroke="#CCCDC9" stroke-width="2"/>
<rect x="606" y="91.5166" width="27.2794" height="36.2453" rx="3" transform="rotate(90 606 91.5166)" fill="white" stroke="#CCCDC9" stroke-width="2"/>
<rect x="602.369" y="4.63086" width="787.369" height="601.369" rx="40" transform="rotate(90 602.369 4.63086)" fill="#F8F6F6" stroke="#CDCDCD" stroke-width="2"/>
<rect x="581.539" y="26.2793" width="744.072" height="558.078" rx="13" transform="rotate(90 581.539 26.2793)" fill="white" stroke="#CDCDCD" stroke-width="2"/>
<mask id="mask0_0_1771" style="mask-type:luminance" maskUnits="userSpaceOnUse" x="22" y="25" width="561" height="747">
<rect x="581.539" y="26.2793" width="744.072" height="558.078" rx="13" transform="rotate(90 581.539 26.2793)" fill="white" stroke="white" stroke-width="2"/>
</mask>
<g mask="url(#mask0_0_1771)">
<path fill-rule="evenodd" clip-rule="evenodd" d="M537 254.279C532.225 243.141 525.77 232.809 517.863 223.646L252.295 221.017L470.944 190.173C456.819 184.525 441.781 181.529 426.579 181.335C383.626 146.851 323.223 144.799 278.048 176.288C260.465 167.207 240.973 162.486 221.202 162.523C162.195 162.523 113.028 203.571 102 258L537 254.279Z" fill="#F6F6F6"/>
<path fill-rule="evenodd" clip-rule="evenodd" d="M547 298.144C547.013 283.363 544.208 268.716 538.736 255L79.0135 303.589C74.2896 312.222 70.6755 321.426 68.2581 330.978L210.629 352.343L65 367.924C69.3807 429.626 121.912 478.348 186.084 478.348C218.387 478.348 247.742 466.002 269.49 445.868C291.307 466.383 320.944 479 353.594 479C402.041 479 443.854 451.225 463.325 411.068C502.39 398.584 532.735 367.239 543.121 328.023L363.085 299.908H546.982C546.991 299.32 547 298.732 547 298.144Z" fill="#F6F6F6"/>
<path opacity="0.1" d="M16.5 757C23.9558 757 30 756.105 30 755C30 753.895 23.9558 753 16.5 753C9.04416 753 3 753.895 3 755C3 756.105 9.04416 757 16.5 757Z" fill="#6C63FF"/>
<path d="M24 622C24 622 17.2229 615.49 9 619.08" stroke="#565987"/>
<path fill-rule="evenodd" clip-rule="evenodd" d="M325 780C457.548 780 565 775.075 565 769C565 762.925 457.548 758 325 758C192.452 758 85 762.925 85 769C85 775.075 192.452 780 325 780Z" fill="#F6F6F6"/>
<path d="M300.255 442.908C300.255 442.908 315.55 471.795 316.737 475.917C317.371 478.266 319.459 479.932 321.894 480.032C321.894 480.032 337.131 483.668 340.772 484.155C344.414 484.642 375.98 487.303 375.98 487.303C375.98 487.303 383.992 487.55 384.961 484.642C385.849 481.981 401.326 467.999 410.285 480.2C411.96 482.488 412.442 485.438 411.581 488.139C409.935 493.374 406.556 501.684 402.929 496.515C397.83 489.244 391.902 491.287 391.902 495.163C391.902 499.038 383.744 497.598 381.079 498.144C379.622 498.442 374.611 499.772 370.277 500.935C365.247 502.293 360.094 503.148 354.895 503.487C346.293 504.047 333.613 504.513 329.119 502.819C323.693 500.761 314.232 500.288 310.182 500.179C308.841 500.147 307.545 499.683 306.489 498.856C300.868 494.464 296.114 489.067 292.469 482.941C286.154 472.035 273.168 449.452 274.042 442.908C274.916 436.365 300.255 442.908 300.255 442.908Z" fill="#EFB7B9"/>
<path opacity="0.05" d="M300.255 442.908C300.255 442.908 315.55 471.795 316.737 475.917C317.371 478.266 319.459 479.932 321.894 480.032C321.894 480.032 337.131 483.668 340.772 484.155C344.414 484.642 375.98 487.303 375.98 487.303C375.98 487.303 383.992 487.55 384.961 484.642C385.849 481.981 401.326 467.999 410.285 480.2C411.96 482.488 412.442 485.438 411.581 488.139C409.935 493.374 406.556 501.684 402.929 496.515C397.83 489.244 391.902 491.287 391.902 495.163C391.902 499.038 383.744 497.598 381.079 498.144C379.622 498.442 374.611 499.772 370.277 500.935C365.247 502.293 360.094 503.148 354.895 503.487C346.293 504.047 333.613 504.513 329.119 502.819C323.693 500.761 314.232 500.288 310.182 500.179C308.841 500.147 307.545 499.683 306.489 498.856C300.868 494.464 296.114 489.067 292.469 482.941C286.154 472.035 273.168 449.452 274.042 442.908C274.916 436.365 300.255 442.908 300.255 442.908Z" fill="black"/>
<path d="M535 714.077C534.944 746.197 509.625 772.581 477.548 773.945C445.471 775.309 418.006 751.17 415.225 719.17C415.138 718.195 415.073 717.221 415.044 716.26V716.209C415.015 715.486 415 714.759 415 714.026C415 680.875 441.863 654 475 654C508.137 654 535 680.875 535 714.026V714.077Z" fill="#65617D"/>
<path d="M475 747C493.225 747 508 732.225 508 714C508 695.775 493.225 681 475 681C456.775 681 442 695.775 442 714C442 732.225 456.775 747 475 747Z" fill="#DCE0ED"/>
<path d="M475.5 734C486.27 734 495 725.27 495 714.5C495 703.73 486.27 695 475.5 695C464.73 695 456 703.73 456 714.5C456 725.27 464.73 734 475.5 734Z" fill="#65617D"/>
<path d="M317 600.089L172 603V581.694C173.299 564.542 190.977 558.525 207.035 556.64C219.589 555.219 232.299 556.169 244.5 559.441C275.265 567.562 294.862 569.134 304.519 569.287C308.889 569.352 312.61 572.472 313.424 576.753C313.883 579.19 314.336 581.846 314.759 584.466C315.08 586.518 315.387 588.541 315.664 590.426C316.467 595.854 317 600.089 317 600.089Z" fill="#65617D"/>
<path fill-rule="evenodd" clip-rule="evenodd" d="M432.252 717.999H131.724C126.981 718.048 122.667 715.25 120.764 710.89C118.5 705.461 121.667 701.998 125.046 699.967C131.961 695.855 137.203 689.42 139.844 681.802C143.048 672.304 146.179 657.442 147.41 634.222C148.677 610.205 157.343 598.332 166.708 592.574C178.803 585.15 192.064 587.934 192.064 587.934L313.917 588.913C316.086 589.9 318.092 591.214 319.866 592.808C330.724 602.949 314.893 616.189 314.893 616.189C280.907 652.232 306.635 688.766 306.635 688.766H368.985C380.634 688.826 392.026 685.327 401.645 678.734C410.071 672.888 413.297 667.24 414.593 663.821C415.554 661.205 416.53 658.597 417.695 656.068C434.051 620.478 414.324 562.58 405.811 540.931C403.699 535.546 402.279 532.404 402.279 532.404L421.831 530.943L434.211 530H434.335C461.585 577.157 471.714 625.614 475.115 661.519C475.436 664.902 475.698 668.183 475.909 671.332C476.689 683.434 472.437 695.32 464.165 704.163C455.893 713.005 444.339 718.015 432.252 717.999Z" fill="#FF7171"/>
<path opacity="0.1" d="M316 590H173V584H315.099C315.419 586.029 315.724 588.066 316 590Z" fill="black"/>
<path opacity="0.1" d="M320 593H168.149C167.754 593.001 167.363 592.927 167 592.783C179.083 585.89 192.33 588.475 192.33 588.475L314.057 589.384C316.223 590.3 318.228 591.52 320 593Z" fill="black"/>
<rect x="112" y="586" width="212" height="6" rx="3" fill="#DCE0ED"/>
<path opacity="0.1" d="M476 661.708C469.112 669.274 464.043 672.252 464.282 664.269C465.006 640.122 423 530.951 423 530.951L435.421 530C462.529 577.188 472.611 625.715 476 661.708Z" fill="black"/>
<path opacity="0.1" d="M534.993 707.269C527.805 708.982 518.938 710.724 507.992 712.351C503.92 712.946 499.541 713.517 494.856 714.064C483.669 715.385 470.731 716.539 455.786 717.425C451.553 717.676 447.158 717.906 442.599 718.114C434.061 718.502 424.922 718.797 415.182 719L415 716.096V716.046C428.61 710.579 450.028 695.996 453.472 658.008C470.904 651.326 490.467 653.067 506.429 662.723C522.391 672.379 532.945 688.856 535 707.327L534.993 707.269Z" fill="black"/>
<path d="M404 718C404 718 473.194 710.485 449.359 605C449.359 605 483.547 636.362 504.817 653.791C526.086 671.219 564 695.249 564 695.249C564 695.249 541.364 716.414 404 718Z" fill="#6C63FF"/>
<path fill-rule="evenodd" clip-rule="evenodd" d="M404 718C404 718 473.194 710.485 449.359 605C449.359 605 483.547 636.362 504.817 653.791C526.086 671.219 564 695.249 564 695.249C564 695.249 541.364 716.414 404 718Z" fill="#FF7171"/>
<path d="M219 774C252.137 774 279 747.137 279 714C279 680.863 252.137 654 219 654C185.863 654 159 680.863 159 714C159 747.137 185.863 774 219 774Z" fill="#65617D"/>
<path d="M219 747C237.225 747 252 732.225 252 714C252 695.775 237.225 681 219 681C200.775 681 186 695.775 186 714C186 732.225 200.775 747 219 747Z" fill="#DCE0ED"/>
<path d="M219.5 734C230.27 734 239 725.27 239 714.5C239 703.73 230.27 695 219.5 695C208.73 695 200 703.73 200 714.5C200 725.27 208.73 734 219.5 734Z" fill="#65617D"/>
<path fill-rule="evenodd" clip-rule="evenodd" d="M285 695.332C285 696.412 285 697.506 284.92 698.55C284.92 699.036 284.868 699.514 284.839 700H152.161C152.161 699.514 152.102 699.036 152.08 698.55C152.029 697.485 152 696.376 152 695.332C152 658.147 181.772 628 218.5 628C255.228 628 285 658.147 285 695.332Z" fill="#FD5F5F"/>
<rect x="123" y="700" width="178" height="16" rx="8" fill="#DCE0ED"/>
<path opacity="0.1" d="M463.805 598.113C468.197 596.125 467.704 585.54 462.705 574.471C457.706 563.402 450.093 556.04 445.701 558.028C441.31 560.016 441.802 570.601 446.801 581.67C451.8 592.739 459.413 600.101 463.805 598.113Z" fill="black"/>
<path fill-rule="evenodd" clip-rule="evenodd" d="M464.533 597.381C468.925 595.393 468.432 584.808 463.433 573.739C458.434 562.67 450.821 555.308 446.429 557.296C442.038 559.284 442.53 569.869 447.529 580.938C452.528 592.007 460.141 599.369 464.533 597.381Z" fill="#F6F6F6"/>
<path opacity="0.1" d="M435 531V542H412.732C410.658 542.002 408.588 541.842 406.541 541.523C404.424 536.349 403 533.331 403 533.331L422.603 531.927L435 531Z" fill="black"/>
<path fill-rule="evenodd" clip-rule="evenodd" d="M435 540H412.608C392.939 540 377 525.482 377 507.503V504.49C377 486.547 392.939 472 412.608 472L435 474.011V540Z" fill="#FF7171"/>
<path d="M397.951 491.731C397.951 491.731 411.297 498.86 403.618 510.923C403.618 510.923 394.199 526.365 379.39 524.902L374 491.731C374 491.731 391.734 490.086 397.951 491.731Z" fill="#6C63FF"/>
<path fill-rule="evenodd" clip-rule="evenodd" d="M392.81 491.097C397.107 491.26 401.099 493.362 403.663 496.813C406.04 500.102 407.459 504.897 403.619 510.927C403.619 510.927 394.199 526.364 379.39 524.902L374 491.74C374 491.74 385.094 490.68 392.81 491.097Z" fill="#FF7171"/>
<path opacity="0.1" d="M434 474H438.32C445.875 474 452 480.052 452 487.516V526.484C452 530.068 450.559 533.506 447.993 536.041C445.428 538.576 441.948 540 438.32 540H434V474Z" fill="black"/>
<path fill-rule="evenodd" clip-rule="evenodd" d="M435 474H439.32C446.875 474 453 480.052 453 487.516V526.484C453 530.068 451.559 533.506 448.993 536.041C446.428 538.576 442.948 540 439.32 540H435V474H435Z" fill="#F6F6F6"/>
<path d="M277 559.276C277 559.276 280.42 560.53 284.987 562.281C292.248 565.089 302.486 569.188 306.044 571.435C309.602 573.682 322.868 577.372 332.801 579.969C340.165 581.885 347.747 582.825 355.353 582.763C363.079 582.69 372.438 582.617 375.023 582.617C375.476 582.613 375.927 582.647 376.374 582.719C379.09 583.171 378.981 585.002 378.915 585.44V585.535C362.941 595.258 343.576 638.782 342.371 646.076C341.463 651.546 333.483 666.711 329.548 673.961C328.226 676.39 327.37 677.929 327.37 677.929L332.213 683.517L346.248 689.841L359.557 695.676C359.557 695.676 373.6 696.405 373.84 695.676C374.079 694.946 374.079 687.412 374.079 687.412C372.37 686.303 370.749 685.064 369.229 683.706C366.009 680.889 363.017 677.818 360.284 674.523C352.543 665.281 368.031 647.535 368.031 647.535L397.801 608.635C397.801 608.635 400.219 604.259 411.837 586.753C423.454 569.247 411.837 559.764 411.837 559.764L391.39 551.238C355.927 537.904 313.152 527.218 313.152 527.218L312.543 527.138L303.474 526L277 559.276Z" fill="#EFB7B9"/>
<path d="M368.608 690.007C368.608 690.007 371.16 693.033 369.25 693.304C367.34 693.576 362.324 692.484 362.324 692.484L330.514 675.631C330.514 675.631 327.05 673.155 326.234 678.013C325.417 682.871 324.863 682.409 324.863 682.409C324.863 682.409 320.671 691.473 324.863 693.348C329.055 695.224 354.238 702.647 354.238 702.647C354.238 702.647 390.787 710.985 394.25 701.364C397.714 691.744 388.053 693.4 388.053 693.4C388.053 693.4 376.023 690.469 371.918 684.607C371.889 684.607 365.969 686.256 368.608 690.007Z" fill="#444053"/>
<path opacity="0.05" d="M411.815 559.809L391.367 551.271C355.902 537.92 313.125 527.22 313.125 527.22L312.515 527.139L303.446 526L277 559.32C277 559.32 280.42 560.576 284.988 562.329C292.249 565.141 302.487 569.246 306.046 571.495C309.604 573.745 322.87 577.441 332.804 580.041C340.168 581.96 347.75 582.9 355.358 582.838C363.084 582.765 372.444 582.692 375.029 582.692C375.481 582.688 375.933 582.723 376.379 582.794C379.095 583.247 378.986 585.081 378.921 585.519V585.614C362.946 595.35 343.58 638.932 342.374 646.235C341.467 651.713 333.486 666.898 329.551 674.158L329.021 675.137C327.968 674.961 326.653 675.341 326.189 678.102C325.368 682.937 324.823 682.484 324.823 682.484C324.823 682.484 320.648 691.519 324.823 693.389C328.999 695.259 354.058 702.657 354.058 702.657C354.058 702.657 390.459 710.969 393.908 701.379C397.357 691.789 387.736 693.44 387.736 693.44C387.736 693.44 375.755 690.518 371.667 684.675C371.304 684.782 370.95 684.913 370.606 685.07C370.178 684.719 369.721 684.339 369.234 683.916C366.014 681.095 363.022 678.02 360.288 674.72C352.547 665.466 368.036 647.696 368.036 647.696L397.808 608.745C397.808 608.745 400.226 604.363 411.844 586.833C423.462 569.304 411.815 559.809 411.815 559.809Z" fill="black"/>
<path d="M252 396.375L253.113 397.786L253.736 398.572L257.618 403.475C257.618 403.475 266.884 406.459 275.007 408.392C283.467 410.398 290.682 411.273 284.947 406.473C281.387 403.497 281.152 398.513 282.449 393.17C283.541 389.058 285.104 385.087 287.107 381.337C287.396 380.778 287.681 380.234 287.964 379.705C289.784 376.328 291.799 373.062 294 369.922C288.792 366.304 283.391 362.974 277.82 359.949C271.11 356.465 265.602 354.943 269.096 361.837C271.337 366.247 270.605 371.201 268.51 375.942C268.349 376.317 268.173 376.677 267.99 377.066C266.109 380.74 263.787 384.169 261.075 387.275C258.297 390.547 255.262 393.589 252 396.375Z" fill="#EFB7B9"/>
<path d="M299.147 508L304.159 512.536L309 531H300.921L292 519.496L299.147 508Z" fill="#444053"/>
<path opacity="0.1" d="M292 519.496L297.396 526.45L300.921 531H309L308.172 527.842L304.647 514.389L304.159 512.536L299.147 508L292.303 519.005L292 519.496Z" fill="black"/>
<path opacity="0.1" d="M292 519.496L297.396 526.45L300.921 531H309L308.172 527.842L304.647 514.389L304.159 512.536L299.147 508L292.303 519.005L292 519.496Z" fill="black"/>
<path d="M265 567.363C265 567.363 268.42 568.617 272.988 570.366C280.249 573.173 290.487 577.269 294.045 579.515C297.604 581.76 310.87 585.448 320.804 588.043C328.168 589.961 335.75 590.902 343.357 590.842C351.084 590.77 360.443 590.697 363.028 590.697C363.481 590.693 363.933 590.727 364.379 590.799C367.095 591.251 366.986 593.08 366.921 593.518V593.612C350.946 603.329 331.579 646.826 330.374 654.115C329.466 659.582 321.486 674.737 317.551 681.983C316.229 684.41 315.372 685.948 315.372 685.948L320.215 691.532L334.244 697.844L347.555 703.676C347.555 703.676 361.598 704.405 361.838 703.676C362.077 702.947 362.077 695.417 362.077 695.417C360.368 694.309 358.746 693.071 357.227 691.714C354.006 688.899 351.015 685.83 348.281 682.537C340.54 673.301 356.029 655.566 356.029 655.566L385.8 616.691C385.8 616.691 388.218 612.317 399.836 594.822C411.455 577.328 399.836 567.851 399.836 567.851L381.204 557.158C352.158 539.423 311.248 529.217 311.248 529.217L310.638 529.137L301.568 528L265 567.363Z" fill="#EFB7B9"/>
<path opacity="0.1" d="M316 685.973L320.873 691.547L334.996 697.855L348.388 703.677C348.388 703.677 362.518 704.404 362.759 703.677C363 702.949 363 695.432 363 695.432C361.28 694.327 359.649 693.091 358.12 691.736C356.607 692.544 354.89 694.057 356.549 696.4C356.549 696.4 359.106 699.398 357.192 699.675C355.277 699.951 350.251 698.86 350.251 698.86L318.374 682.124L318.192 682C316.848 684.438 316 685.973 316 685.973Z" fill="black"/>
<path d="M356.632 698.025C356.632 698.025 359.185 701.047 357.266 701.326C355.348 701.604 350.336 700.497 350.336 700.497L318.517 683.629C318.517 683.629 315.053 681.158 314.228 686.013C313.404 690.868 312.864 690.413 312.864 690.413C312.864 690.413 308.67 699.492 312.864 701.37C317.059 703.247 342.225 710.647 342.225 710.647C342.225 710.647 378.785 718.985 382.25 709.363C385.715 699.741 376.05 701.384 376.05 701.384C376.05 701.384 364.014 698.451 359.914 692.584C359.936 692.613 353.984 694.263 356.632 698.025Z" fill="#444053"/>
<path opacity="0.1" d="M267 374.616C271.179 377.475 277.557 382 283.002 382C284.406 382 285.809 381.89 287.196 381.671C289.21 377.824 291.483 374.115 294 370.57C294 370.57 262.184 348.646 269.415 362.707C271.801 367.382 269.451 369.676 267 374.616Z" fill="black"/>
<path d="M257 354.511C256.993 363.491 261.455 371.861 268.852 376.74C269.669 377.283 270.518 377.775 271.394 378.212C281.792 383.499 294.37 381.111 302.204 372.364C310.037 363.616 311.224 350.633 305.111 340.561C298.998 330.489 287.07 325.774 275.892 329.012C264.714 332.249 257.002 342.653 257 354.496V354.511Z" fill="#EFB7B9"/>
<path opacity="0.1" d="M265 567.023C265 567.023 268.417 568.266 272.979 570C275.845 567.485 278.783 565.057 280.009 564.616C282.671 563.648 291.376 558.589 291.136 557.144C290.897 555.699 294.763 550.163 298.144 549.195C301.524 548.227 299.595 543.175 299.595 543.175C299.595 543.175 306.123 540.769 307.748 537.394C309.373 534.02 314.349 529.684 312.652 529.929C311.916 529.81 311.214 529.537 310.592 529.127L301.531 528L265 567.023Z" fill="black"/>
<path d="M245.334 558.775C245.334 558.775 256.513 567.994 257.03 572.112C257.548 576.23 265.01 575.998 265.01 575.998C265.01 575.998 276.189 565.324 278.857 564.356C281.524 563.388 290.276 558.288 290.036 556.832C289.795 555.377 293.679 549.804 297.075 548.829C300.471 547.854 298.533 542.768 298.533 542.768C298.533 542.768 305.092 540.345 306.724 536.947C308.356 533.549 313.356 529.183 311.65 529.431C311.169 529.496 309.632 528.703 307.679 527.546C305.281 526.091 302.242 524.119 299.764 522.453C297.141 520.678 295.137 519.266 295.137 519.266C295.137 519.266 293.993 519.062 292.032 518.779C281.458 517.251 247.017 513.351 239.023 526.055C237.957 527.734 237.158 529.567 236.655 531.49C233.076 545.023 245.334 558.775 245.334 558.775Z" fill="#444053"/>
<path opacity="0.1" d="M257 529C257 529 245.773 535 241.587 535C237.4 535 257 529 257 529Z" fill="black"/>
<path opacity="0.1" d="M265 534.14C265 534.14 248.034 539.791 248.034 544.232C248.034 548.672 246.448 532.337 265 534.14Z" fill="black"/>
<path opacity="0.1" d="M305.665 508.275L305.335 508.725C305.485 508.609 305.6 508.453 305.665 508.275Z" fill="black"/>
<path opacity="0.1" d="M236 531.332C238.001 532.17 240.254 532.221 242.292 531.476C249.868 529.076 261.852 523.298 267.47 525.828C271.973 527.854 290.11 527.797 296.805 526.094C298.47 525.67 299.424 525.145 299.277 524.527C299.182 523.815 299.271 523.092 299.534 522.422C300.311 519.986 302.423 516.601 304 514.266L303.516 512.448L298.544 508L291.752 518.779C281.111 517.27 246.451 513.418 238.406 525.964C237.325 527.621 236.514 529.432 236 531.332Z" fill="black"/>
<path d="M231.957 526.087C231.957 526.087 234.873 532.91 242.404 530.475C249.936 528.04 261.849 522.152 267.433 524.727C273.018 527.301 299.76 526.57 299.031 523.403C298.302 520.236 305.592 510.24 305.592 510.24C305.592 510.24 301.612 509.508 299.147 496.469C298.783 494.568 298.455 492.403 298.178 489.946C297.576 484.914 297.434 479.837 297.755 474.778C298.739 460.664 303.668 454.902 303.668 454.902C303.668 454.902 310.47 447.106 304.637 436.378C301.583 430.754 289.254 415.17 289.086 408.222C288.933 401.918 282.926 394.591 282.926 394.591C282.926 394.591 283.181 399.52 280.272 399.615C276.35 399.739 276.299 398.416 272.682 396.887C267.368 394.635 261.907 390.664 261.55 388.009C261.55 388.009 239.269 386.89 234.407 409.561C229.544 432.231 231.25 444.663 231.979 447.347C232.708 450.031 239.022 484.644 233.918 499.27C228.815 513.896 231.957 526.087 231.957 526.087Z" fill="#A36468"/>
<path opacity="0.1" d="M268.194 485.851C272.249 492.645 277.673 498.533 284.127 503.145C288.431 503.181 292.729 503.466 297 504C296.632 502.1 296.264 499.938 296.022 497.483C295.414 492.455 295.271 487.383 295.595 482.329C294.166 481.617 293.116 480.329 292.712 478.793C291.483 474.65 280.545 454.923 280.545 454.923C280.545 454.923 254.954 448.347 254.064 454.923C253.174 461.498 261.817 474.891 268.194 485.851Z" fill="black"/>
<path d="M276.257 442.908C276.257 442.908 291.548 471.795 292.735 475.917C293.369 478.266 295.457 479.932 297.891 480.032C297.891 480.032 313.125 483.668 316.765 484.155C320.406 484.642 351.988 487.303 351.988 487.303C351.988 487.303 359.998 487.55 360.966 484.642C361.855 481.981 377.329 467.999 386.285 480.2C387.96 482.488 388.442 485.438 387.581 488.139C385.936 493.374 382.557 501.684 378.931 496.515C373.833 489.244 367.906 491.287 367.906 495.163C367.906 499.038 359.75 497.598 357.085 498.144C355.629 498.442 350.619 499.772 346.286 500.935C341.245 502.295 336.081 503.15 330.87 503.487C322.271 504.047 309.593 504.513 305.1 502.819C299.682 500.761 290.223 500.288 286.167 500.179C284.826 500.147 283.531 499.683 282.475 498.856C276.858 494.463 272.107 489.066 268.465 482.941C262.152 472.035 249.168 449.452 250.042 442.908C250.916 436.365 276.257 442.908 276.257 442.908Z" fill="#EFB7B9"/>
<path opacity="0.1" d="M271.459 402.548C271.459 402.548 279.712 416.081 283.534 425.744C287.356 435.406 292 452.325 292 452.325L269.008 449.665L267.057 446.526C267.057 446.526 250.639 456.674 252.598 461.023C254.556 465.373 248.196 454.5 248.687 442.177C249.179 429.854 246.919 407.861 248.687 402.548C250.455 397.235 266.052 398.438 271.459 402.548Z" fill="black"/>
<path d="M248.712 441.175C248.22 453.499 254.581 464.373 252.622 460.023C250.663 455.674 267.083 445.525 267.083 445.525L269.013 448.664L292 451.324C292 451.324 287.356 434.404 283.533 424.741C281.237 419.274 278.61 413.948 275.668 408.792C273.313 404.566 271.456 401.543 271.456 401.543C268.294 399.129 261.581 397.715 256.225 398.048C255.39 398.095 254.559 398.195 253.737 398.346C251.536 398.773 249.761 399.6 248.976 400.905C248.856 401.107 248.757 401.32 248.682 401.543C246.921 406.856 249.181 428.851 248.712 441.175Z" fill="#A36468"/>
<path opacity="0.1" d="M238 475C238 475 247.986 488.626 251 489C250.977 489.03 238.166 486.2 238 475Z" fill="black"/>
<path opacity="0.1" d="M238 494C238 494 256.363 512.812 262.24 512.999C268.116 513.185 238 494 238 494Z" fill="black"/>
<path opacity="0.1" d="M239.002 501C239.002 501 250.268 515 250.972 515C251.676 515 238.805 510.147 239.002 501Z" fill="black"/>
<path d="M294.288 353.326C289.364 359.01 279.013 355.699 273.594 360.907C268.837 365.47 270.728 373.431 268.786 379.752C267.404 384.242 264.065 387.809 260.719 391.09C255.845 395.866 249.612 400.714 242.949 399.345C238.999 398.532 235.129 395.558 231.31 396.928C229.412 397.616 228.052 399.271 226.633 400.729C221.815 405.673 215.552 408.935 208.761 410.038C207.418 410.343 206.018 410.277 204.709 409.848C202.673 409.013 201.574 406.771 199.719 405.577C196.082 403.234 191.413 405.636 187.637 407.731C166.279 419.375 140.979 421.208 118.185 412.763L124.07 409.833C122.819 407.262 119.437 406.698 117.283 404.816C112.846 400.941 115.458 393.192 120.149 389.64C124.841 386.088 130.915 384.85 135.774 381.532C136.763 380.858 137.767 379.965 137.862 378.771C137.846 377.894 137.569 377.042 137.069 376.324C134.479 371.732 131.613 366.803 132.195 361.551C133.083 353.495 141.819 348.544 149.842 347.98C157.865 347.416 165.808 349.847 173.846 349.986C176.755 350.038 179.803 349.752 182.298 348.236C185.782 346.127 187.536 342.106 189.652 338.612C193.43 332.409 198.844 327.383 205.291 324.095C212.565 320.397 220.799 319.1 228.364 316.039C236.089 312.918 243.116 307.982 251.197 305.997C262.93 303.067 275.5 306.898 285.632 313.519C290.513 316.705 306.101 326.93 305.999 333.47C305.919 337.352 300.908 339.454 299.009 342.501C296.914 345.907 296.98 350.221 294.288 353.326Z" fill="#965D7B"/>
<g opacity="0.1">
<path d="M136.536 373.35C137.035 374.07 137.312 374.922 137.332 375.8C137.303 376.109 137.216 376.41 137.076 376.687C134.93 372.888 132.696 368.862 132.338 364.624C133.287 367.652 134.959 370.564 136.536 373.35Z" fill="black"/>
<path d="M116.679 401.877C118.833 403.762 122.227 404.326 123.49 406.9L121.402 407.942C119.996 407.277 118.658 406.474 117.409 405.544C115.804 404.107 114.961 401.998 115.131 399.846C115.504 400.622 116.03 401.313 116.679 401.877Z" fill="black"/>
</g>
<path opacity="0.1" d="M367.645 593L374 590.199V589.104C374 588.685 368.929 589.614 365 590.405C367.826 590.86 367.713 592.587 367.645 593Z" fill="black"/>
<path fill-rule="evenodd" clip-rule="evenodd" d="M373 527C381.284 527 388 518.941 388 509C388 499.059 381.284 491 373 491C364.716 491 358 499.059 358 509C358 518.941 364.716 527 373 527Z" fill="#FF7171"/>
<path d="M231 485L207.209 508L129 506.661L150.504 485H231Z" fill="#DDA2A6"/>
<path d="M231 565.262V485L207 508.462V587L231 565.262Z" fill="#B77B7F"/>
<path d="M129 507V587H207V508.368L129 507Z" fill="#DDA2A6"/>
<path opacity="0.3" d="M129 507V587H207V508.368L129 507Z" fill="white"/>
<path fill-rule="evenodd" clip-rule="evenodd" d="M201 530.947L142.611 521L135 559.042L195.112 570L201 530.947Z" fill="#FFF0AE"/>
<path fill-rule="evenodd" clip-rule="evenodd" d="M189 539.284L149.977 533L149 538.215L188.023 545L189 539.284Z" fill="#FF7171"/>
<path fill-rule="evenodd" clip-rule="evenodd" d="M178 550.258L155.969 547L155 552.713L178 556V550.258Z" fill="#FF7171"/>
<path d="M221 527.846L219.966 496L214 502.081L215.041 534L221 527.846Z" fill="#65617D"/>
<path d="M142.942 493L217.493 493.959L220 495.303L213.935 501L211.841 499.828L138 497.834L142.942 493Z" fill="#65617D"/>
</g>
<path fill-rule="evenodd" clip-rule="evenodd" d="M298.423 16.2706C298.423 14.6943 299.701 13.4165 301.277 13.4165C302.853 13.4165 304.131 14.6943 304.131 16.2706C304.131 17.8469 302.853 19.1248 301.277 19.1248C299.701 19.1248 298.423 17.8469 298.423 16.2706Z" fill="#E6E6E1"/>
</svg>
